# 3ds Max Wavefront OBJ Exporter v0.97b - (c)2007 guruware
# File Created: 29.01.2020 14:43:58

newmtl Material__35
	Ns 38.000000
	Ni 1.500000
	d 1.000000
	Tr 0.000000
	Tf 1.000000 1.000000 1.000000 
	illum 2
	Ka 0.000000 0.000000 0.000000
	Kd 0.113725 0.113725 0.113725
	Ks 0.648000 0.648000 0.648000
	Ke 0.000000 0.000000 0.000000

newmtl Material__36
	Ns 38.000000
	Ni 1.500000
	d 1.000000
	Tr 0.000000
	Tf 1.000000 1.000000 1.000000 
	illum 2
	Ka 0.000000 0.000000 0.000000
	Kd 0.733333 0.043137 0.043137
	Ks 0.549000 0.549000 0.549000
	Ke 0.000000 0.000000 0.000000

newmtl Material__59
	Ns 38.000000
	Ni 1.500000
	d 1.000000
	Tr 0.000000
	Tf 1.000000 1.000000 1.000000 
	illum 2
	Ka 0.000000 0.000000 0.000000
	Kd 0.733333 0.788235 0.043137
	Ks 0.549000 0.549000 0.549000
	Ke 0.000000 0.000000 0.000000
