# 3ds Max Wavefront OBJ Exporter v0.97b - (c)2007 guruware
# File Created: 22.01.2020 15:35:07

newmtl ground
	Ns 10.000000
	Ni 1.500000
	d 1.000000
	Tr 0.000000
	Tf 1.000000 1.000000 1.000000 
	illum 2
	Ka 0.000000 0.000000 0.000000
	Kd 1.0 1.0 1.0
	Ks 0.000000 0.000000 0.000000
	Ke 0.000000 0.000000 0.000000
	map_Ka maps\ortho.jpg
	map_Kd maps\ortho.jpg

newmtl Material_1
	Ns 10.000000
	Ni 1.500000
	d 1.000000
	Tr 0.000000
	Tf 1.000000 1.000000 1.000000 
	illum 2
	Ka 0.000000 0.000000 0.000000
	Kd 0.95 0.95 0.95
	Ks 0.000000 0.000000 0.000000
	Ke 0.000000 0.000000 0.000000
